{
 "actions": [],
 "allow_rename": 1,
 "creation": "2022-09-09 17:25:03.395852",
 "doctype": "DocType",
 "editable_grid": 1,
 "engine": "InnoDB",
 "field_order": [
  "api_call"
 ],
 "fields": [
  {
   "fieldname": "api_call",
   "fieldtype": "Data",
   "in_list_view": 1,
   "label": "API Call",
   "read_only": 1
  }
 ],
 "index_web_pages_for_search": 1,
 "links": [],
 "modified": "2022-09-09 17:29:22.321398",
 "modified_by": "Administrator",
 "module": "Hiboutik",
 "name": "Hiboutik API Log",
 "owner": "Administrator",
 "permissions": [
  {
   "create": 1,
   "delete": 1,
   "email": 1,
   "export": 1,
   "print": 1,
   "read": 1,
   "report": 1,
   "role": "System Manager",
   "select": 1,
   "share": 1,
   "write": 1
  }
 ],
 "sort_field": "modified",
 "sort_order": "DESC",
 "states": []
}